{
  "page": 1,
  "per_page": 15,
  "photos": [
    {
      "id": 624015,
      "width": 4216,
      "height": 2848,
      "url": "https://www.pexels.com/photo/aurora-borealis-624015/",
      "photographer": "Frans Van Heerden",
      "photographer_url": "https://www.pexels.com/@frans-van-heerden-201846",
      "photographer_id": 201846,
      "avg_color": "#71839F",
      "src": {
        "original": "https://images.pexels.com/photos/624015/pexels-photo-624015.jpeg",
        "large2x": "https://images.pexels.com/photos/624015/pexels-photo-624015.jpeg?auto=compress&cs=tinysrgb&dpr=2&h=650&w=940",
        "large": "https://images.pexels.com/photos/624015/pexels-photo-624015.jpeg?auto=compress&cs=tinysrgb&h=650&w=940",
        "medium": "https://images.pexels.com/photos/624015/pexels-photo-624015.jpeg?auto=compress&cs=tinysrgb&h=350",
        "small": "https://images.pexels.com/photos/624015/pexels-photo-624015.jpeg?auto=compress&cs=tinysrgb&h=130",
        "portrait": "https://images.pexels.com/photos/624015/pexels-photo-624015.jpeg?auto=compress&cs=tinysrgb&fit=crop&h=1200&w=800",
        "landscape": "https://images.pexels.com/photos/624015/pexels-photo-624015.jpeg?auto=compress&cs=tinysrgb&fit=crop&h=627&w=1200",
        "tiny": "https://images.pexels.com/photos/624015/pexels-photo-624015.jpeg?auto=compress&cs=tinysrgb&dpr=1&fit=crop&h=200&w=280"
      },
      "liked": false,
      "alt": "Aurora Borealis"
    },
    {
      "id": 15286,
      "width": 2500,
      "height": 1667,
      "url": "https://www.pexels.com/photo/person-walking-between-green-forest-trees-15286/",
      "photographer": "Luis del Río",
      "photographer_url": "https://www.pexels.com/@luisdelrio",
      "photographer_id": 1081,
      "avg_color": "#283419",
      "src": {
        "original": "https://images.pexels.com/photos/15286/pexels-photo.jpg",
        "large2x": "https://images.pexels.com/photos/15286/pexels-photo.jpg?auto=compress&cs=tinysrgb&dpr=2&h=650&w=940",
        "large": "https://images.pexels.com/photos/15286/pexels-photo.jpg?auto=compress&cs=tinysrgb&h=650&w=940",
        "medium": "https://images.pexels.com/photos/15286/pexels-photo.jpg?auto=compress&cs=tinysrgb&h=350",
        "small": "https://images.pexels.com/photos/15286/pexels-photo.jpg?auto=compress&cs=tinysrgb&h=130",
        "portrait": "https://images.pexels.com/photos/15286/pexels-photo.jpg?auto=compress&cs=tinysrgb&fit=crop&h=1200&w=800",
        "landscape": "https://images.pexels.com/photos/15286/pexels-photo.jpg?auto=compress&cs=tinysrgb&fit=crop&h=627&w=1200",
        "tiny": "https://images.pexels.com/photos/15286/pexels-photo.jpg?auto=compress&cs=tinysrgb&dpr=1&fit=crop&h=200&w=280"
      },
      "liked": false,
      "alt": "Person Walking Between Green Forest Trees"
    },
    {
      "id": 572897,
      "width": 6914,
      "height": 4463,
      "url": "https://www.pexels.com/photo/mountain-covered-snow-under-star-572897/",
      "photographer": "eberhard grossgasteiger",
      "photographer_url": "https://www.pexels.com/@eberhardgross",
      "photographer_id": 121938,
      "avg_color": "#5D5A63",
      "src": {
        "original": "https://images.pexels.com/photos/572897/pexels-photo-572897.jpeg",
        "large2x": "https://images.pexels.com/photos/572897/pexels-photo-572897.jpeg?auto=compress&cs=tinysrgb&dpr=2&h=650&w=940",
        "large": "https://images.pexels.com/photos/572897/pexels-photo-572897.jpeg?auto=compress&cs=tinysrgb&h=650&w=940",
        "medium": "https://images.pexels.com/photos/572897/pexels-photo-572897.jpeg?auto=compress&cs=tinysrgb&h=350",
        "small": "https://images.pexels.com/photos/572897/pexels-photo-572897.jpeg?auto=compress&cs=tinysrgb&h=130",
        "portrait": "https://images.pexels.com/photos/572897/pexels-photo-572897.jpeg?auto=compress&cs=tinysrgb&fit=crop&h=1200&w=800",
        "landscape": "https://images.pexels.com/photos/572897/pexels-photo-572897.jpeg?auto=compress&cs=tinysrgb&fit=crop&h=627&w=1200",
        "tiny": "https://images.pexels.com/photos/572897/pexels-photo-572897.jpeg?auto=compress&cs=tinysrgb&dpr=1&fit=crop&h=200&w=280"
      },
      "liked": false,
      "alt": "Mountain Covered Snow Under Star"
    },
    {
      "id": 3408744,
      "width": 3546,
      "height": 2255,
      "url": "https://www.pexels.com/photo/scenic-view-of-snow-capped-mountains-during-night-3408744/",
      "photographer": "stein egil liland",
      "photographer_url": "https://www.pexels.com/@therato",
      "photographer_id": 144244,
      "avg_color": "#557088",
      "src": {
        "original": "https://images.pexels.com/photos/3408744/pexels-photo-3408744.jpeg",
        "large2x": "https://images.pexels.com/photos/3408744/pexels-photo-3408744.jpeg?auto=compress&cs=tinysrgb&dpr=2&h=650&w=940",
        "large": "https://images.pexels.com/photos/3408744/pexels-photo-3408744.jpeg?auto=compress&cs=tinysrgb&h=650&w=940",
        "medium": "https://images.pexels.com/photos/3408744/pexels-photo-3408744.jpeg?auto=compress&cs=tinysrgb&h=350",
        "small": "https://images.pexels.com/photos/3408744/pexels-photo-3408744.jpeg?auto=compress&cs=tinysrgb&h=130",
        "portrait": "https://images.pexels.com/photos/3408744/pexels-photo-3408744.jpeg?auto=compress&cs=tinysrgb&fit=crop&h=1200&w=800",
        "landscape": "https://images.pexels.com/photos/3408744/pexels-photo-3408744.jpeg?auto=compress&cs=tinysrgb&fit=crop&h=627&w=1200",
        "tiny": "https://images.pexels.com/photos/3408744/pexels-photo-3408744.jpeg?auto=compress&cs=tinysrgb&dpr=1&fit=crop&h=200&w=280"
      },
      "liked": false,
      "alt": "Scenic View Of Snow Capped Mountains During Night"
    },
    {
      "id": 3244513,
      "width": 5121,
      "height": 3525,
      "url": "https://www.pexels.com/photo/brown-landscape-under-grey-sky-3244513/",
      "photographer": "Andy Vu",
      "photographer_url": "https://www.pexels.com/@andyhvu",
      "photographer_id": 1653971,
      "avg_color": "#473C36",
      "src": {
        "original": "https://images.pexels.com/photos/3244513/pexels-photo-3244513.jpeg",
        "large2x": "https://images.pexels.com/photos/3244513/pexels-photo-3244513.jpeg?auto=compress&cs=tinysrgb&dpr=2&h=650&w=940",
        "large": "https://images.pexels.com/photos/3244513/pexels-photo-3244513.jpeg?auto=compress&cs=tinysrgb&h=650&w=940",
        "medium": "https://images.pexels.com/photos/3244513/pexels-photo-3244513.jpeg?auto=compress&cs=tinysrgb&h=350",
        "small": "https://images.pexels.com/photos/3244513/pexels-photo-3244513.jpeg?auto=compress&cs=tinysrgb&h=130",
        "portrait": "https://images.pexels.com/photos/3244513/pexels-photo-3244513.jpeg?auto=compress&cs=tinysrgb&fit=crop&h=1200&w=800",
        "landscape": "https://images.pexels.com/photos/3244513/pexels-photo-3244513.jpeg?auto=compress&cs=tinysrgb&fit=crop&h=627&w=1200",
        "tiny": "https://images.pexels.com/photos/3244513/pexels-photo-3244513.jpeg?auto=compress&cs=tinysrgb&dpr=1&fit=crop&h=200&w=280"
      },
      "liked": false,
      "alt": "Brown Landscape Under Grey Sky"
    },
    {
      "id": 4215113,
      "width": 3898,
      "height": 5198,
      "url": "https://www.pexels.com/photo/green-grass-field-near-mountain-4215113/",
      "photographer": "Gianluca Grisenti",
      "photographer_url": "https://www.pexels.com/@grisentig",
      "photographer_id": 2638779,
      "avg_color": "#4F4B48",
      "src": {
        "original": "https://images.pexels.com/photos/4215113/pexels-photo-4215113.jpeg",
        "large2x": "https://images.pexels.com/photos/4215113/pexels-photo-4215113.jpeg?auto=compress&cs=tinysrgb&dpr=2&h=650&w=940",
        "large": "https://images.pexels.com/photos/4215113/pexels-photo-4215113.jpeg?auto=compress&cs=tinysrgb&h=650&w=940",
        "medium": "https://images.pexels.com/photos/4215113/pexels-photo-4215113.jpeg?auto=compress&cs=tinysrgb&h=350",
        "small": "https://images.pexels.com/photos/4215113/pexels-photo-4215113.jpeg?auto=compress&cs=tinysrgb&h=130",
        "portrait": "https://images.pexels.com/photos/4215113/pexels-photo-4215113.jpeg?auto=compress&cs=tinysrgb&fit=crop&h=1200&w=800",
        "landscape": "https://images.pexels.com/photos/4215113/pexels-photo-4215113.jpeg?auto=compress&cs=tinysrgb&fit=crop&h=627&w=1200",
        "tiny": "https://images.pexels.com/photos/4215113/pexels-photo-4215113.jpeg?auto=compress&cs=tinysrgb&dpr=1&fit=crop&h=200&w=280"
      },
      "liked": false,
      "alt": "Green Grass Field Near Mountain"
    },
    {
      "id": 33041,
      "width": 4167,
      "height": 2541,
      "url": "https://www.pexels.com/photo/antelope-canyon-33041/",
      "photographer": "Paul IJsendoorn",
      "photographer_url": "https://www.pexels.com/@photospublic",
      "photographer_id": 148531,
      "avg_color": "#7F4C3E",
      "src": {
        "original": "https://images.pexels.com/photos/33041/antelope-canyon-lower-canyon-arizona.jpg",
        "large2x": "https://images.pexels.com/photos/33041/antelope-canyon-lower-canyon-arizona.jpg?auto=compress&cs=tinysrgb&dpr=2&h=650&w=940",
        "large": "https://images.pexels.com/photos/33041/antelope-canyon-lower-canyon-arizona.jpg?auto=compress&cs=tinysrgb&h=650&w=940",
        "medium": "https://images.pexels.com/photos/33041/antelope-canyon-lower-canyon-arizona.jpg?auto=compress&cs=tinysrgb&h=350",
        "small": "https://images.pexels.com/photos/33041/antelope-canyon-lower-canyon-arizona.jpg?auto=compress&cs=tinysrgb&h=130",
        "portrait": "https://images.pexels.com/photos/33041/antelope-canyon-lower-canyon-arizona.jpg?auto=compress&cs=tinysrgb&fit=crop&h=1200&w=800",
        "landscape": "https://images.pexels.com/photos/33041/antelope-canyon-lower-canyon-arizona.jpg?auto=compress&cs=tinysrgb&fit=crop&h=627&w=1200",
        "tiny": "https://images.pexels.com/photos/33041/antelope-canyon-lower-canyon-arizona.jpg?auto=compress&cs=tinysrgb&dpr=1&fit=crop&h=200&w=280"
      },
      "liked": false,
      "alt": "Antelope Canyon"
    },
    {
      "id": 924824,
      "width": 6144,
      "height": 4096,
      "url": "https://www.pexels.com/photo/time-lapse-photo-of-stars-on-night-924824/",
      "photographer": "Jakub Novacek",
      "photographer_url": "https://www.pexels.com/@kubiceknov",
      "photographer_id": 172969,
      "avg_color": "#222028",
      "src": {
        "original": "https://images.pexels.com/photos/924824/pexels-photo-924824.jpeg",
        "large2x": "https://images.pexels.com/photos/924824/pexels-photo-924824.jpeg?auto=compress&cs=tinysrgb&dpr=2&h=650&w=940",
        "large": "https://images.pexels.com/photos/924824/pexels-photo-924824.jpeg?auto=compress&cs=tinysrgb&h=650&w=940",
        "medium": "https://images.pexels.com/photos/924824/pexels-photo-924824.jpeg?auto=compress&cs=tinysrgb&h=350",
        "small": "https://images.pexels.com/photos/924824/pexels-photo-924824.jpeg?auto=compress&cs=tinysrgb&h=130",
        "portrait": "https://images.pexels.com/photos/924824/pexels-photo-924824.jpeg?auto=compress&cs=tinysrgb&fit=crop&h=1200&w=800",
        "landscape": "https://images.pexels.com/photos/924824/pexels-photo-924824.jpeg?auto=compress&cs=tinysrgb&fit=crop&h=627&w=1200",
        "tiny": "https://images.pexels.com/photos/924824/pexels-photo-924824.jpeg?auto=compress&cs=tinysrgb&dpr=1&fit=crop&h=200&w=280"
      },
      "liked": false,
      "alt": "Time Lapse Photo of Stars on Night"
    },
    {
      "id": 3900437,
      "width": 3878,
      "height": 5254,
      "url": "https://www.pexels.com/photo/arches-national-park-3900437/",
      "photographer": "Anne McCarthy",
      "photographer_url": "https://www.pexels.com/@anne-mccarthy-481401",
      "photographer_id": 481401,
      "avg_color": "#8E6F6C",
      "src": {
        "original": "https://images.pexels.com/photos/3900437/pexels-photo-3900437.jpeg",
        "large2x": "https://images.pexels.com/photos/3900437/pexels-photo-3900437.jpeg?auto=compress&cs=tinysrgb&dpr=2&h=650&w=940",
        "large": "https://images.pexels.com/photos/3900437/pexels-photo-3900437.jpeg?auto=compress&cs=tinysrgb&h=650&w=940",
        "medium": "https://images.pexels.com/photos/3900437/pexels-photo-3900437.jpeg?auto=compress&cs=tinysrgb&h=350",
        "small": "https://images.pexels.com/photos/3900437/pexels-photo-3900437.jpeg?auto=compress&cs=tinysrgb&h=130",
        "portrait": "https://images.pexels.com/photos/3900437/pexels-photo-3900437.jpeg?auto=compress&cs=tinysrgb&fit=crop&h=1200&w=800",
        "landscape": "https://images.pexels.com/photos/3900437/pexels-photo-3900437.jpeg?auto=compress&cs=tinysrgb&fit=crop&h=627&w=1200",
        "tiny": "https://images.pexels.com/photos/3900437/pexels-photo-3900437.jpeg?auto=compress&cs=tinysrgb&dpr=1&fit=crop&h=200&w=280"
      },
      "liked": false,
      "alt": "arches national park"
    },
    {
      "id": 4035587,
      "width": 3264,
      "height": 4928,
      "url": "https://www.pexels.com/photo/ocean-waves-in-grayscale-photography-4035587/",
      "photographer": "Ekrulila",
      "photographer_url": "https://www.pexels.com/@ekrulila",
      "photographer_id": 1127278,
      "avg_color": "#5C6767",
      "src": {
        "original": "https://images.pexels.com/photos/4035587/pexels-photo-4035587.jpeg",
        "large2x": "https://images.pexels.com/photos/4035587/pexels-photo-4035587.jpeg?auto=compress&cs=tinysrgb&dpr=2&h=650&w=940",
        "large": "https://images.pexels.com/photos/4035587/pexels-photo-4035587.jpeg?auto=compress&cs=tinysrgb&h=650&w=940",
        "medium": "https://images.pexels.com/photos/4035587/pexels-photo-4035587.jpeg?auto=compress&cs=tinysrgb&h=350",
        "small": "https://images.pexels.com/photos/4035587/pexels-photo-4035587.jpeg?auto=compress&cs=tinysrgb&h=130",
        "portrait": "https://images.pexels.com/photos/4035587/pexels-photo-4035587.jpeg?auto=compress&cs=tinysrgb&fit=crop&h=1200&w=800",
        "landscape": "https://images.pexels.com/photos/4035587/pexels-photo-4035587.jpeg?auto=compress&cs=tinysrgb&fit=crop&h=627&w=1200",
        "tiny": "https://images.pexels.com/photos/4035587/pexels-photo-4035587.jpeg?auto=compress&cs=tinysrgb&dpr=1&fit=crop&h=200&w=280"
      },
      "liked": false,
      "alt": "Ocean Waves In Grayscale Photography"
    },
    {
      "id": 4064432,
      "width": 2832,
      "height": 4240,
      "url": "https://www.pexels.com/photo/green-mountain-with-river-in-the-middle-4064432/",
      "photographer": "Matteo Badini",
      "photographer_url": "https://www.pexels.com/@teobadini",
      "photographer_id": 2437080,
      "avg_color": "#4C4E3D",
      "src": {
        "original": "https://images.pexels.com/photos/4064432/pexels-photo-4064432.jpeg",
        "large2x": "https://images.pexels.com/photos/4064432/pexels-photo-4064432.jpeg?auto=compress&cs=tinysrgb&dpr=2&h=650&w=940",
        "large": "https://images.pexels.com/photos/4064432/pexels-photo-4064432.jpeg?auto=compress&cs=tinysrgb&h=650&w=940",
        "medium": "https://images.pexels.com/photos/4064432/pexels-photo-4064432.jpeg?auto=compress&cs=tinysrgb&h=350",
        "small": "https://images.pexels.com/photos/4064432/pexels-photo-4064432.jpeg?auto=compress&cs=tinysrgb&h=130",
        "portrait": "https://images.pexels.com/photos/4064432/pexels-photo-4064432.jpeg?auto=compress&cs=tinysrgb&fit=crop&h=1200&w=800",
        "landscape": "https://images.pexels.com/photos/4064432/pexels-photo-4064432.jpeg?auto=compress&cs=tinysrgb&fit=crop&h=627&w=1200",
        "tiny": "https://images.pexels.com/photos/4064432/pexels-photo-4064432.jpeg?auto=compress&cs=tinysrgb&dpr=1&fit=crop&h=200&w=280"
      },
      "liked": false,
      "alt": "Green Mountain With River in the Middle"
    },
    {
      "id": 4318822,
      "width": 3576,
      "height": 4470,
      "url": "https://www.pexels.com/photo/car-on-a-dessert-4318822/",
      "photographer": "Jônatas Tinoco",
      "photographer_url": "https://www.pexels.com/@jonatas-tinoco-2777521",
      "photographer_id": 2777521,
      "avg_color": "#8C7D72",
      "src": {
        "original": "https://images.pexels.com/photos/4318822/pexels-photo-4318822.jpeg",
        "large2x": "https://images.pexels.com/photos/4318822/pexels-photo-4318822.jpeg?auto=compress&cs=tinysrgb&dpr=2&h=650&w=940",
        "large": "https://images.pexels.com/photos/4318822/pexels-photo-4318822.jpeg?auto=compress&cs=tinysrgb&h=650&w=940",
        "medium": "https://images.pexels.com/photos/4318822/pexels-photo-4318822.jpeg?auto=compress&cs=tinysrgb&h=350",
        "small": "https://images.pexels.com/photos/4318822/pexels-photo-4318822.jpeg?auto=compress&cs=tinysrgb&h=130",
        "portrait": "https://images.pexels.com/photos/4318822/pexels-photo-4318822.jpeg?auto=compress&cs=tinysrgb&fit=crop&h=1200&w=800",
        "landscape": "https://images.pexels.com/photos/4318822/pexels-photo-4318822.jpeg?auto=compress&cs=tinysrgb&fit=crop&h=627&w=1200",
        "tiny": "https://images.pexels.com/photos/4318822/pexels-photo-4318822.jpeg?auto=compress&cs=tinysrgb&dpr=1&fit=crop&h=200&w=280"
      },
      "liked": false,
      "alt": "Car on a Dessert"
    },
    {
      "id": 4319752,
      "width": 9600,
      "height": 12000,
      "url": "https://www.pexels.com/photo/people-surfing-on-sea-waves-4319752/",
      "photographer": "Jess Loiterton",
      "photographer_url": "https://www.pexels.com/@jess-vide",
      "photographer_id": 2653860,
      "avg_color": "#7FBFCA",
      "src": {
        "original": "https://images.pexels.com/photos/4319752/pexels-photo-4319752.jpeg",
        "large2x": "https://images.pexels.com/photos/4319752/pexels-photo-4319752.jpeg?auto=compress&cs=tinysrgb&dpr=2&h=650&w=940",
        "large": "https://images.pexels.com/photos/4319752/pexels-photo-4319752.jpeg?auto=compress&cs=tinysrgb&h=650&w=940",
        "medium": "https://images.pexels.com/photos/4319752/pexels-photo-4319752.jpeg?auto=compress&cs=tinysrgb&h=350",
        "small": "https://images.pexels.com/photos/4319752/pexels-photo-4319752.jpeg?auto=compress&cs=tinysrgb&h=130",
        "portrait": "https://images.pexels.com/photos/4319752/pexels-photo-4319752.jpeg?auto=compress&cs=tinysrgb&fit=crop&h=1200&w=800",
        "landscape": "https://images.pexels.com/photos/4319752/pexels-photo-4319752.jpeg?auto=compress&cs=tinysrgb&fit=crop&h=627&w=1200",
        "tiny": "https://images.pexels.com/photos/4319752/pexels-photo-4319752.jpeg?auto=compress&cs=tinysrgb&dpr=1&fit=crop&h=200&w=280"
      },
      "liked": false,
      "alt": "People Surfing on Sea Waves"
    },
    {
      "id": 4220967,
      "width": 3858,
      "height": 5787,
      "url": "https://www.pexels.com/photo/volcano-erupting-at-night-under-starry-sky-4220967/",
      "photographer": "Clive Kim",
      "photographer_url": "https://www.pexels.com/@clive-kim-2523249",
      "photographer_id": 2523249,
      "avg_color": "#1E151A",
      "src": {
        "original": "https://images.pexels.com/photos/4220967/pexels-photo-4220967.jpeg",
        "large2x": "https://images.pexels.com/photos/4220967/pexels-photo-4220967.jpeg?auto=compress&cs=tinysrgb&dpr=2&h=650&w=940",
        "large": "https://images.pexels.com/photos/4220967/pexels-photo-4220967.jpeg?auto=compress&cs=tinysrgb&h=650&w=940",
        "medium": "https://images.pexels.com/photos/4220967/pexels-photo-4220967.jpeg?auto=compress&cs=tinysrgb&h=350",
        "small": "https://images.pexels.com/photos/4220967/pexels-photo-4220967.jpeg?auto=compress&cs=tinysrgb&h=130",
        "portrait": "https://images.pexels.com/photos/4220967/pexels-photo-4220967.jpeg?auto=compress&cs=tinysrgb&fit=crop&h=1200&w=800",
        "landscape": "https://images.pexels.com/photos/4220967/pexels-photo-4220967.jpeg?auto=compress&cs=tinysrgb&fit=crop&h=627&w=1200",
        "tiny": "https://images.pexels.com/photos/4220967/pexels-photo-4220967.jpeg?auto=compress&cs=tinysrgb&dpr=1&fit=crop&h=200&w=280"
      },
      "liked": false,
      "alt": "Volcano Erupting at Night Under Starry Sky"
    },
    {
      "id": 3850526,
      "width": 3456,
      "height": 5184,
      "url": "https://www.pexels.com/photo/elephant-on-green-grass-field-3850526/",
      "photographer": "Saifuddin  Ratlamwala",
      "photographer_url": "https://www.pexels.com/@thefatmansvision",
      "photographer_id": 2196101,
      "avg_color": "#86978D",
      "src": {
        "original": "https://images.pexels.com/photos/3850526/pexels-photo-3850526.jpeg",
        "large2x": "https://images.pexels.com/photos/3850526/pexels-photo-3850526.jpeg?auto=compress&cs=tinysrgb&dpr=2&h=650&w=940",
        "large": "https://images.pexels.com/photos/3850526/pexels-photo-3850526.jpeg?auto=compress&cs=tinysrgb&h=650&w=940",
        "medium": "https://images.pexels.com/photos/3850526/pexels-photo-3850526.jpeg?auto=compress&cs=tinysrgb&h=350",
        "small": "https://images.pexels.com/photos/3850526/pexels-photo-3850526.jpeg?auto=compress&cs=tinysrgb&h=130",
        "portrait": "https://images.pexels.com/photos/3850526/pexels-photo-3850526.jpeg?auto=compress&cs=tinysrgb&fit=crop&h=1200&w=800",
        "landscape": "https://images.pexels.com/photos/3850526/pexels-photo-3850526.jpeg?auto=compress&cs=tinysrgb&fit=crop&h=627&w=1200",
        "tiny": "https://images.pexels.com/photos/3850526/pexels-photo-3850526.jpeg?auto=compress&cs=tinysrgb&dpr=1&fit=crop&h=200&w=280"
      },
      "liked": false,
      "alt": "Elephant on Green Grass Field"
    }
  ],
  "total_results": 8000,
  "next_page": "https://api.pexels.com/v1/search/?page=2&per_page=15&query=nature"
}